{
  "arch": "x86_64",
  "build": "py38h06a4308_0",
  "build_number": 0,
  "channel": "https://repo.anaconda.com/pkgs/main/linux-64",
  "constrains": [],
  "depends": [
    "python >=3.8,<3.9.0a0"
  ],
  "features": "",
  "fn": "certifi-2020.12.5-py38h06a4308_0.conda",
  "legacy_bz2_md5": "e756e50071490addcb191e409946c60e",
  "license": "ISC",
  "md5": "a0284d282349498e5e88dd3be1a4b61d",
  "name": "certifi",
  "platform": "linux",
  "sha256": "3ada7feea92eada57161fe8b6b32399d15ada9c4f29c5d2818f84502b9505920",
  "size": 144178,
  "subdir": "linux-64",
  "timestamp": 1607365752742,
  "track_features": "",
  "url": "https://repo.anaconda.com/pkgs/main/linux-64/certifi-2020.12.5-py38h06a4308_0.conda",
  "version": "2020.12.5"
}