{
  "arch": "x86_64",
  "build": "hbc83047_0",
  "build_number": 0,
  "channel": "https://repo.anaconda.com/pkgs/main/linux-64",
  "constrains": [],
  "depends": [
    "libgcc-ng >=7.3.0",
    "zlib >=1.2.11,<1.3.0a0"
  ],
  "features": "",
  "fn": "libpng-1.6.37-hbc83047_0.conda",
  "legacy_bz2_md5": "9cb85601944ca7383b1769bff74b94e8",
  "license": "zlib/libpng",
  "md5": "689f903925dcf6c5ab7bc1de0f58b67b",
  "name": "libpng",
  "platform": "linux",
  "sha256": "4f99638c8da0abe841c2b4bc337839f2a01363d40cfc334c0084e79dc0fd0a0d",
  "size": 284656,
  "subdir": "linux-64",
  "timestamp": 1556041895170,
  "track_features": "",
  "url": "https://repo.anaconda.com/pkgs/main/linux-64/libpng-1.6.37-hbc83047_0.conda",
  "version": "1.6.37"
}