{
  "paths": [
    {
      "_path": "bin/sip",
      "path_type": "hardlink",
      "sha256": "19b4abefd105235c6c73c38c1312e79e64a26cddbc6fe2ae55e6394da55d8dda",
      "size_in_bytes": 435672
    },
    {
      "_path": "include/python3.8/sip.h",
      "path_type": "hardlink",
      "sha256": "c3c3b0eaa40add10b29297a755355ff1371f8e47aa65b0a7a92e4acc7af34da5",
      "size_in_bytes": 67001
    },
    {
      "_path": "lib/python3.8/site-packages/__pycache__/sipconfig.cpython-38.pyc",
      "path_type": "hardlink",
      "sha256": "086f38db95c87ea1787c6d9d676493e85723024c591fb07f2920c08ad5fd0ed4",
      "size_in_bytes": 61089
    },
    {
      "_path": "lib/python3.8/site-packages/__pycache__/sipdistutils.cpython-38.pyc",
      "path_type": "hardlink",
      "sha256": "e7818151c134a0a8c71a412bd92a1db42bb80c2173d8b12f4ecf2d3ea83ca1c3",
      "size_in_bytes": 5143
    },
    {
      "_path": "lib/python3.8/site-packages/sip-4.19.13.dist-info/INSTALLER",
      "path_type": "hardlink",
      "sha256": "d0edee15f91b406f3f99726e44eb990be6e34fd0345b52b910c568e0eef6a2a8",
      "size_in_bytes": 5
    },
    {
      "_path": "lib/python3.8/site-packages/sip-4.19.13.dist-info/METADATA",
      "path_type": "hardlink",
      "sha256": "1b113d409f57cb87a21e853b7c128bb59387e6c2ad0c260d41ffb55019fd6dcc",
      "size_in_bytes": 49
    },
    {
      "_path": "lib/python3.8/site-packages/sip-4.19.13.dist-info/RECORD",
      "path_type": "hardlink",
      "sha256": "72933c7d252246d29b2291d68c1c2e1e69c285e7d527aecab23fc935a1728361",
      "size_in_bytes": 637
    },
    {
      "_path": "lib/python3.8/site-packages/sip.pyi",
      "path_type": "hardlink",
      "sha256": "61bfca5a13eeb20c7f282bdf9d399fa921509b6e23d7f1169ea13c9090d1de35",
      "size_in_bytes": 2801
    },
    {
      "_path": "lib/python3.8/site-packages/sip.so",
      "path_type": "hardlink",
      "sha256": "4da05d84701606b40a354366b93fa0e315ec00c7cc74c2401f55807c718bc2f5",
      "size_in_bytes": 144592
    },
    {
      "_path": "lib/python3.8/site-packages/sipconfig.py",
      "file_mode": "text",
      "path_type": "hardlink",
      "prefix_placeholder": "/opt/anaconda1anaconda2anaconda3",
      "sha256": "e4296c25cc106f972420fe2c7b9cb6d8bf15c74656b5ff3c988262afcbcae217",
      "size_in_bytes": 96870
    },
    {
      "_path": "lib/python3.8/site-packages/sipdistutils.py",
      "path_type": "hardlink",
      "sha256": "24e71a82ecf970aee1d609bbb7eab88fe5eb91ef589276f5dfb6dd388297fd79",
      "size_in_bytes": 6041
    }
  ],
  "paths_version": 1
}