{
  "arch": "x86_64",
  "build": "h92f7085_0",
  "build_number": 0,
  "channel": "https://repo.anaconda.com/pkgs/main/linux-64",
  "constrains": [],
  "depends": [
    "libffi >=3.3,<3.4.0a0",
    "libgcc-ng >=7.3.0",
    "libstdcxx-ng >=7.3.0",
    "pcre >=8.44,<9.0a0",
    "zlib >=1.2.11,<1.3.0a0"
  ],
  "features": "",
  "fn": "glib-2.66.1-h92f7085_0.conda",
  "legacy_bz2_md5": "814457a69603c00b74222f229e8780a5",
  "license": "LGPL-2.1",
  "md5": "9430d6ac60c7c4429e99ae0b1878a39b",
  "name": "glib",
  "platform": "linux",
  "sha256": "8926874da0fb6f1d1a0e9a26e8115fdad52de762d5fddcf690beabf0f6fb38dd",
  "size": 3069852,
  "subdir": "linux-64",
  "timestamp": 1602709775969,
  "track_features": "",
  "url": "https://repo.anaconda.com/pkgs/main/linux-64/glib-2.66.1-h92f7085_0.conda",
  "version": "2.66.1"
}