{
  "build": "hbc83047_0",
  "build_number": 0,
  "channel": "https://repo.anaconda.com/pkgs/main/linux-64",
  "constrains": [],
  "depends": [
    "libgcc-ng >=7.3.0",
    "zlib >=1.2.11,<1.3.0a0"
  ],
  "extracted_package_dir": "/home/student2/PycharmProjects/masterproject/relook/instance_occlsegm/.anaconda3/pkgs/libpng-1.6.37-hbc83047_0",
  "features": "",
  "files": [
    "bin/libpng-config",
    "bin/libpng16-config",
    "bin/png-fix-itxt",
    "bin/pngfix",
    "include/libpng16/png.h",
    "include/libpng16/pngconf.h",
    "include/libpng16/pnglibconf.h",
    "include/png.h",
    "include/pngconf.h",
    "include/pnglibconf.h",
    "lib/libpng.a",
    "lib/libpng.so",
    "lib/libpng16.a",
    "lib/libpng16.so",
    "lib/libpng16.so.16",
    "lib/libpng16.so.16.37.0",
    "lib/pkgconfig/libpng.pc",
    "lib/pkgconfig/libpng16.pc",
    "share/man/man3/libpng.3",
    "share/man/man3/libpngpf.3",
    "share/man/man5/png.5"
  ],
  "fn": "libpng-1.6.37-hbc83047_0.conda",
  "legacy_bz2_md5": "9cb85601944ca7383b1769bff74b94e8",
  "license": "zlib/libpng",
  "link": {
    "source": "/home/student2/PycharmProjects/masterproject/relook/instance_occlsegm/.anaconda3/pkgs/libpng-1.6.37-hbc83047_0",
    "type": 1
  },
  "md5": "689f903925dcf6c5ab7bc1de0f58b67b",
  "name": "libpng",
  "package_tarball_full_path": "/home/student2/PycharmProjects/masterproject/relook/instance_occlsegm/.anaconda3/pkgs/libpng-1.6.37-hbc83047_0.conda",
  "paths_data": {
    "paths": [
      {
        "_path": "bin/libpng-config",
        "path_type": "softlink",
        "sha256": "5ee8287ea322bfa64a457ccd32ed2556528a43c891b587527173856ae1ed9e34",
        "size_in_bytes": 2349
      },
      {
        "_path": "bin/libpng16-config",
        "file_mode": "text",
        "path_type": "hardlink",
        "prefix_placeholder": "/opt/anaconda1anaconda2anaconda3",
        "sha256": "5ee8287ea322bfa64a457ccd32ed2556528a43c891b587527173856ae1ed9e34",
        "sha256_in_prefix": "df64836aee5f578f0d4a4bb817dd3f25b0974c9a05289c5a1cd04c23720991ca",
        "size_in_bytes": 2349
      },
      {
        "_path": "bin/png-fix-itxt",
        "path_type": "hardlink",
        "sha256": "fbfa8a708a627a5f545688a2281ccfa1d0c4462a92c0d3648a309867017163ee",
        "sha256_in_prefix": "fbfa8a708a627a5f545688a2281ccfa1d0c4462a92c0d3648a309867017163ee",
        "size_in_bytes": 19800
      },
      {
        "_path": "bin/pngfix",
        "path_type": "hardlink",
        "sha256": "1de782c4f0fe4260e0ec58329aa469569048b6b426cbfcd18eb81aa8bff008a5",
        "sha256_in_prefix": "1de782c4f0fe4260e0ec58329aa469569048b6b426cbfcd18eb81aa8bff008a5",
        "size_in_bytes": 60440
      },
      {
        "_path": "include/libpng16/png.h",
        "path_type": "hardlink",
        "sha256": "f8e248049a97831f5e9fb24ec0c7c6b7cacb3b3ba7303300b4f5b2b90bae3c40",
        "sha256_in_prefix": "f8e248049a97831f5e9fb24ec0c7c6b7cacb3b3ba7303300b4f5b2b90bae3c40",
        "size_in_bytes": 142860
      },
      {
        "_path": "include/libpng16/pngconf.h",
        "path_type": "hardlink",
        "sha256": "0ba884e89c5bfa8f86ad9286fedc4d26bb6f51f0dba7aaaf67e70baa6fd17a30",
        "sha256_in_prefix": "0ba884e89c5bfa8f86ad9286fedc4d26bb6f51f0dba7aaaf67e70baa6fd17a30",
        "size_in_bytes": 22846
      },
      {
        "_path": "include/libpng16/pnglibconf.h",
        "path_type": "hardlink",
        "sha256": "6540e4e1ac29c165e45160f9bf55bdc977f726bd6dea481c222aaea7c762b9d6",
        "sha256_in_prefix": "6540e4e1ac29c165e45160f9bf55bdc977f726bd6dea481c222aaea7c762b9d6",
        "size_in_bytes": 7602
      },
      {
        "_path": "include/png.h",
        "path_type": "softlink",
        "sha256": "f8e248049a97831f5e9fb24ec0c7c6b7cacb3b3ba7303300b4f5b2b90bae3c40",
        "size_in_bytes": 142860
      },
      {
        "_path": "include/pngconf.h",
        "path_type": "softlink",
        "sha256": "0ba884e89c5bfa8f86ad9286fedc4d26bb6f51f0dba7aaaf67e70baa6fd17a30",
        "size_in_bytes": 22846
      },
      {
        "_path": "include/pnglibconf.h",
        "path_type": "softlink",
        "sha256": "6540e4e1ac29c165e45160f9bf55bdc977f726bd6dea481c222aaea7c762b9d6",
        "size_in_bytes": 7602
      },
      {
        "_path": "lib/libpng.a",
        "path_type": "softlink",
        "sha256": "8aaf8d6b390cb062731e84912b1ada53b01979da0fede5b3a2c5e3c7cf6e6fca",
        "size_in_bytes": 441546
      },
      {
        "_path": "lib/libpng.so",
        "path_type": "softlink",
        "sha256": "625492054d16f8164dbe907af7b2b2a4809aae9832920cf1ac6f63c088407da5",
        "size_in_bytes": 252872
      },
      {
        "_path": "lib/libpng16.a",
        "path_type": "hardlink",
        "sha256": "8aaf8d6b390cb062731e84912b1ada53b01979da0fede5b3a2c5e3c7cf6e6fca",
        "sha256_in_prefix": "8aaf8d6b390cb062731e84912b1ada53b01979da0fede5b3a2c5e3c7cf6e6fca",
        "size_in_bytes": 441546
      },
      {
        "_path": "lib/libpng16.so",
        "path_type": "softlink",
        "sha256": "625492054d16f8164dbe907af7b2b2a4809aae9832920cf1ac6f63c088407da5",
        "size_in_bytes": 252872
      },
      {
        "_path": "lib/libpng16.so.16",
        "path_type": "softlink",
        "sha256": "625492054d16f8164dbe907af7b2b2a4809aae9832920cf1ac6f63c088407da5",
        "size_in_bytes": 252872
      },
      {
        "_path": "lib/libpng16.so.16.37.0",
        "path_type": "hardlink",
        "sha256": "625492054d16f8164dbe907af7b2b2a4809aae9832920cf1ac6f63c088407da5",
        "sha256_in_prefix": "625492054d16f8164dbe907af7b2b2a4809aae9832920cf1ac6f63c088407da5",
        "size_in_bytes": 252872
      },
      {
        "_path": "lib/pkgconfig/libpng.pc",
        "path_type": "softlink",
        "sha256": "dbcb1357d66f3d55d44641dbb2a7ce77dddebb64ae79805b74bca80d7eda6ae2",
        "size_in_bytes": 287
      },
      {
        "_path": "lib/pkgconfig/libpng16.pc",
        "file_mode": "text",
        "path_type": "hardlink",
        "prefix_placeholder": "/opt/anaconda1anaconda2anaconda3",
        "sha256": "dbcb1357d66f3d55d44641dbb2a7ce77dddebb64ae79805b74bca80d7eda6ae2",
        "sha256_in_prefix": "3c61d57baf6416e3e690190859da8f32ba8f0b9a3f0e65c32863f831ded984b1",
        "size_in_bytes": 287
      },
      {
        "_path": "share/man/man3/libpng.3",
        "path_type": "hardlink",
        "sha256": "d38170ffa126efd48863a3c224aff72e86ee2fd73dd21e3dcea6533bc0bb44c4",
        "sha256_in_prefix": "d38170ffa126efd48863a3c224aff72e86ee2fd73dd21e3dcea6533bc0bb44c4",
        "size_in_bytes": 266162
      },
      {
        "_path": "share/man/man3/libpngpf.3",
        "path_type": "hardlink",
        "sha256": "c8d33fbad152826e192563686244c351872426917a56029a684b66c913be643c",
        "sha256_in_prefix": "c8d33fbad152826e192563686244c351872426917a56029a684b66c913be643c",
        "size_in_bytes": 801
      },
      {
        "_path": "share/man/man5/png.5",
        "path_type": "hardlink",
        "sha256": "c12fe9b24313754dfe3f61076c46e0d7796b0cdfb1ad5d81be5caf7d8cf16434",
        "sha256_in_prefix": "c12fe9b24313754dfe3f61076c46e0d7796b0cdfb1ad5d81be5caf7d8cf16434",
        "size_in_bytes": 2493
      }
    ],
    "paths_version": 1
  },
  "requested_spec": "None",
  "sha256": "4f99638c8da0abe841c2b4bc337839f2a01363d40cfc334c0084e79dc0fd0a0d",
  "size": 284656,
  "subdir": "linux-64",
  "timestamp": 1556041895170,
  "track_features": "",
  "url": "https://repo.anaconda.com/pkgs/main/linux-64/libpng-1.6.37-hbc83047_0.conda",
  "version": "1.6.37"
}