{
  "build": "h7f8727e_0",
  "build_number": 0,
  "channel": "https://repo.anaconda.com/pkgs/main/linux-64",
  "constrains": [],
  "depends": [
    "ca-certificates",
    "libgcc-ng >=7.5.0"
  ],
  "extracted_package_dir": "/home/student2/PycharmProjects/masterproject/relook/instance_occlsegm/.anaconda3/pkgs/openssl-1.1.1l-h7f8727e_0",
  "features": "",
  "files": [
    "bin/c_rehash",
    "bin/openssl",
    "include/openssl/aes.h",
    "include/openssl/asn1.h",
    "include/openssl/asn1_mac.h",
    "include/openssl/asn1err.h",
    "include/openssl/asn1t.h",
    "include/openssl/async.h",
    "include/openssl/asyncerr.h",
    "include/openssl/bio.h",
    "include/openssl/bioerr.h",
    "include/openssl/blowfish.h",
    "include/openssl/bn.h",
    "include/openssl/bnerr.h",
    "include/openssl/buffer.h",
    "include/openssl/buffererr.h",
    "include/openssl/camellia.h",
    "include/openssl/cast.h",
    "include/openssl/cmac.h",
    "include/openssl/cms.h",
    "include/openssl/cmserr.h",
    "include/openssl/comp.h",
    "include/openssl/comperr.h",
    "include/openssl/conf.h",
    "include/openssl/conf_api.h",
    "include/openssl/conferr.h",
    "include/openssl/crypto.h",
    "include/openssl/cryptoerr.h",
    "include/openssl/ct.h",
    "include/openssl/cterr.h",
    "include/openssl/des.h",
    "include/openssl/dh.h",
    "include/openssl/dherr.h",
    "include/openssl/dsa.h",
    "include/openssl/dsaerr.h",
    "include/openssl/dtls1.h",
    "include/openssl/e_os2.h",
    "include/openssl/ebcdic.h",
    "include/openssl/ec.h",
    "include/openssl/ecdh.h",
    "include/openssl/ecdsa.h",
    "include/openssl/ecerr.h",
    "include/openssl/engine.h",
    "include/openssl/engineerr.h",
    "include/openssl/err.h",
    "include/openssl/evp.h",
    "include/openssl/evperr.h",
    "include/openssl/hmac.h",
    "include/openssl/idea.h",
    "include/openssl/kdf.h",
    "include/openssl/kdferr.h",
    "include/openssl/lhash.h",
    "include/openssl/md2.h",
    "include/openssl/md4.h",
    "include/openssl/md5.h",
    "include/openssl/mdc2.h",
    "include/openssl/modes.h",
    "include/openssl/obj_mac.h",
    "include/openssl/objects.h",
    "include/openssl/objectserr.h",
    "include/openssl/ocsp.h",
    "include/openssl/ocsperr.h",
    "include/openssl/opensslconf.h",
    "include/openssl/opensslv.h",
    "include/openssl/ossl_typ.h",
    "include/openssl/pem.h",
    "include/openssl/pem2.h",
    "include/openssl/pemerr.h",
    "include/openssl/pkcs12.h",
    "include/openssl/pkcs12err.h",
    "include/openssl/pkcs7.h",
    "include/openssl/pkcs7err.h",
    "include/openssl/rand.h",
    "include/openssl/rand_drbg.h",
    "include/openssl/randerr.h",
    "include/openssl/rc2.h",
    "include/openssl/rc4.h",
    "include/openssl/rc5.h",
    "include/openssl/ripemd.h",
    "include/openssl/rsa.h",
    "include/openssl/rsaerr.h",
    "include/openssl/safestack.h",
    "include/openssl/seed.h",
    "include/openssl/sha.h",
    "include/openssl/srp.h",
    "include/openssl/srtp.h",
    "include/openssl/ssl.h",
    "include/openssl/ssl2.h",
    "include/openssl/ssl3.h",
    "include/openssl/sslerr.h",
    "include/openssl/stack.h",
    "include/openssl/store.h",
    "include/openssl/storeerr.h",
    "include/openssl/symhacks.h",
    "include/openssl/tls1.h",
    "include/openssl/ts.h",
    "include/openssl/tserr.h",
    "include/openssl/txt_db.h",
    "include/openssl/ui.h",
    "include/openssl/uierr.h",
    "include/openssl/whrlpool.h",
    "include/openssl/x509.h",
    "include/openssl/x509_vfy.h",
    "include/openssl/x509err.h",
    "include/openssl/x509v3.h",
    "include/openssl/x509v3err.h",
    "lib/engines-1.1/afalg.so",
    "lib/engines-1.1/capi.so",
    "lib/engines-1.1/padlock.so",
    "lib/libcrypto.a",
    "lib/libcrypto.so",
    "lib/libcrypto.so.1.1",
    "lib/libssl.a",
    "lib/libssl.so",
    "lib/libssl.so.1.1",
    "lib/pkgconfig/libcrypto.pc",
    "lib/pkgconfig/libssl.pc",
    "lib/pkgconfig/openssl.pc",
    "ssl/ct_log_list.cnf",
    "ssl/ct_log_list.cnf.dist",
    "ssl/misc/CA.pl",
    "ssl/misc/tsget",
    "ssl/misc/tsget.pl",
    "ssl/openssl.cnf",
    "ssl/openssl.cnf.dist"
  ],
  "fn": "openssl-1.1.1l-h7f8727e_0.conda",
  "legacy_bz2_md5": "991c8f07775e59c214a21a776fb9ed94",
  "license": "OpenSSL",
  "license_family": "Apache",
  "link": {
    "source": "/home/student2/PycharmProjects/masterproject/relook/instance_occlsegm/.anaconda3/pkgs/openssl-1.1.1l-h7f8727e_0",
    "type": 1
  },
  "md5": "0e915dd5bd00c5684e84c59cf561b2af",
  "name": "openssl",
  "package_tarball_full_path": "/home/student2/PycharmProjects/masterproject/relook/instance_occlsegm/.anaconda3/pkgs/openssl-1.1.1l-h7f8727e_0.conda",
  "paths_data": {
    "paths": [
      {
        "_path": "bin/c_rehash",
        "file_mode": "text",
        "path_type": "hardlink",
        "prefix_placeholder": "/tmp/build/80754af9/openssl_1630591740906/_h_env_placehold_placehold_placehold_placehold_placehold_placehold_placehold_placehold_placehold_placehold_placehold_placehold_placehold_placehold_placehold_placehold_placehold_placehold_placehold_placehold_placeh",
        "sha256": "7584c67c4ec8fe52bfce0840a391cb4e842dc00b97fd135c6bda838414b5f7b7",
        "sha256_in_prefix": "fb554fd53ab66ceb3e0e44488346d9e4cf7d9a544f495d5074640f09c21dd422",
        "size_in_bytes": 6678
      },
      {
        "_path": "bin/openssl",
        "path_type": "hardlink",
        "sha256": "13bd924740f6d93fde9c1563b6ca16503d42a1e26460e1ca4fb3fe1e21f6c37e",
        "sha256_in_prefix": "13bd924740f6d93fde9c1563b6ca16503d42a1e26460e1ca4fb3fe1e21f6c37e",
        "size_in_bytes": 833296
      },
      {
        "_path": "include/openssl/aes.h",
        "path_type": "hardlink",
        "sha256": "f6ba27e87d97ea578f01540a8f84b7eab05d42c178badce712d0cc668d8a9981",
        "sha256_in_prefix": "f6ba27e87d97ea578f01540a8f84b7eab05d42c178badce712d0cc668d8a9981",
        "size_in_bytes": 3349
      },
      {
        "_path": "include/openssl/asn1.h",
        "path_type": "hardlink",
        "sha256": "851313b1176baa3d6896aaeeebef56216ebdd38dcdabb39b3eca36b6645352bc",
        "sha256_in_prefix": "851313b1176baa3d6896aaeeebef56216ebdd38dcdabb39b3eca36b6645352bc",
        "size_in_bytes": 33627
      },
      {
        "_path": "include/openssl/asn1_mac.h",
        "path_type": "hardlink",
        "sha256": "db4883ed3aa74e07338001b31ec7e3e68546521c54bbdfe68c473b33f8511ca6",
        "sha256_in_prefix": "db4883ed3aa74e07338001b31ec7e3e68546521c54bbdfe68c473b33f8511ca6",
        "size_in_bytes": 395
      },
      {
        "_path": "include/openssl/asn1err.h",
        "path_type": "hardlink",
        "sha256": "b89b16216ddd35f028f5bfd3fe0db4f2ead6c9415e7749b7115b0393b427ef2f",
        "sha256_in_prefix": "b89b16216ddd35f028f5bfd3fe0db4f2ead6c9415e7749b7115b0393b427ef2f",
        "size_in_bytes": 14687
      },
      {
        "_path": "include/openssl/asn1t.h",
        "path_type": "hardlink",
        "sha256": "2702f569302248b8228e493177cf0a469f127f1ce5c76bc684bc90fbdfc45743",
        "sha256_in_prefix": "2702f569302248b8228e493177cf0a469f127f1ce5c76bc684bc90fbdfc45743",
        "size_in_bytes": 32940
      },
      {
        "_path": "include/openssl/async.h",
        "path_type": "hardlink",
        "sha256": "ef96c716cac393f2cd6da304af029155ecd9f021869cd5a4c341ebdf249036bc",
        "sha256_in_prefix": "ef96c716cac393f2cd6da304af029155ecd9f021869cd5a4c341ebdf249036bc",
        "size_in_bytes": 2398
      },
      {
        "_path": "include/openssl/asyncerr.h",
        "path_type": "hardlink",
        "sha256": "cacc9ca951aa523d3ed6b9df2366022633925a6729d30cd134a05d2ffe5fb156",
        "sha256_in_prefix": "cacc9ca951aa523d3ed6b9df2366022633925a6729d30cd134a05d2ffe5fb156",
        "size_in_bytes": 1326
      },
      {
        "_path": "include/openssl/bio.h",
        "path_type": "hardlink",
        "sha256": "78b055555957eec2bfb4ce5f91b27bdcfdf73128026be9ce85fcca0126fdcd3d",
        "sha256_in_prefix": "78b055555957eec2bfb4ce5f91b27bdcfdf73128026be9ce85fcca0126fdcd3d",
        "size_in_bytes": 34907
      },
      {
        "_path": "include/openssl/bioerr.h",
        "path_type": "hardlink",
        "sha256": "ad29fe4ef37fd7c4b256b690caf9371a74e29981f6561b94436dac54a61bf74b",
        "sha256_in_prefix": "ad29fe4ef37fd7c4b256b690caf9371a74e29981f6561b94436dac54a61bf74b",
        "size_in_bytes": 6400
      },
      {
        "_path": "include/openssl/blowfish.h",
        "path_type": "hardlink",
        "sha256": "813b2c7cff888b5b709b90d4da584afef59b5ce1ea888617d682f1af48578faf",
        "sha256_in_prefix": "813b2c7cff888b5b709b90d4da584afef59b5ce1ea888617d682f1af48578faf",
        "size_in_bytes": 1847
      },
      {
        "_path": "include/openssl/bn.h",
        "path_type": "hardlink",
        "sha256": "8f79b29c5ad479186acaae962a598d9868dc434fd5fa49a008eecfaff1b998ca",
        "sha256_in_prefix": "8f79b29c5ad479186acaae962a598d9868dc434fd5fa49a008eecfaff1b998ca",
        "size_in_bytes": 22135
      },
      {
        "_path": "include/openssl/bnerr.h",
        "path_type": "hardlink",
        "sha256": "daacb00f416075ae470723f764d0ff9703f4a5fc31e881e1be8937631de7efff",
        "sha256_in_prefix": "daacb00f416075ae470723f764d0ff9703f4a5fc31e881e1be8937631de7efff",
        "size_in_bytes": 4907
      },
      {
        "_path": "include/openssl/buffer.h",
        "path_type": "hardlink",
        "sha256": "a4fa292b903cb8c2ce1761ba4980cf5bdfb66dcadcbb5c8aecc45b012bc64c23",
        "sha256_in_prefix": "a4fa292b903cb8c2ce1761ba4980cf5bdfb66dcadcbb5c8aecc45b012bc64c23",
        "size_in_bytes": 1600
      },
      {
        "_path": "include/openssl/buffererr.h",
        "path_type": "hardlink",
        "sha256": "722f6ea87711b7c0cb6ee29c15762c2839e5ad17b9ef579b6e81b6121f035c30",
        "sha256_in_prefix": "722f6ea87711b7c0cb6ee29c15762c2839e5ad17b9ef579b6e81b6121f035c30",
        "size_in_bytes": 820
      },
      {
        "_path": "include/openssl/camellia.h",
        "path_type": "hardlink",
        "sha256": "561bdb2e985458e809e656c60e4bc83e1d6707746dd8b5badbc10b64198d4770",
        "sha256_in_prefix": "561bdb2e985458e809e656c60e4bc83e1d6707746dd8b5badbc10b64198d4770",
        "size_in_bytes": 3179
      },
      {
        "_path": "include/openssl/cast.h",
        "path_type": "hardlink",
        "sha256": "a14c51a129b3ae5795dafd98065be0bb0cbf00b4d4528e85adbf629966f42f53",
        "sha256_in_prefix": "a14c51a129b3ae5795dafd98065be0bb0cbf00b4d4528e85adbf629966f42f53",
        "size_in_bytes": 1674
      },
      {
        "_path": "include/openssl/cmac.h",
        "path_type": "hardlink",
        "sha256": "75bf95d1da118ff1e2f143ccb7a564d949de440097b97a49725c03976e167b52",
        "sha256_in_prefix": "75bf95d1da118ff1e2f143ccb7a564d949de440097b97a49725c03976e167b52",
        "size_in_bytes": 1064
      },
      {
        "_path": "include/openssl/cms.h",
        "path_type": "hardlink",
        "sha256": "07e4b0a779c957ef9026d69c0cb5a621ddc2060af967e0dd5e91ac861fdfbdb2",
        "sha256_in_prefix": "07e4b0a779c957ef9026d69c0cb5a621ddc2060af967e0dd5e91ac861fdfbdb2",
        "size_in_bytes": 16379
      },
      {
        "_path": "include/openssl/cmserr.h",
        "path_type": "hardlink",
        "sha256": "086aa0b661ba9de9618afc948a4d1a82df970a406f6c5bb6fa60572a720a62f0",
        "sha256_in_prefix": "086aa0b661ba9de9618afc948a4d1a82df970a406f6c5bb6fa60572a720a62f0",
        "size_in_bytes": 11160
      },
      {
        "_path": "include/openssl/comp.h",
        "path_type": "hardlink",
        "sha256": "98a877c62723e6042e4e4740cd1a6e7799df752d9234386d73a28a098e6eb31c",
        "sha256_in_prefix": "98a877c62723e6042e4e4740cd1a6e7799df752d9234386d73a28a098e6eb31c",
        "size_in_bytes": 1328
      },
      {
        "_path": "include/openssl/comperr.h",
        "path_type": "hardlink",
        "sha256": "f64be205d08af2557187ec19c03678aa9e29f66e428de29cebdd62cd7c3b5515",
        "sha256_in_prefix": "f64be205d08af2557187ec19c03678aa9e29f66e428de29cebdd62cd7c3b5515",
        "size_in_bytes": 1212
      },
      {
        "_path": "include/openssl/conf.h",
        "path_type": "hardlink",
        "sha256": "e54341e30523dadc09d821366f5afb13c9286d540b34c1945406918ed588fa21",
        "sha256_in_prefix": "e54341e30523dadc09d821366f5afb13c9286d540b34c1945406918ed588fa21",
        "size_in_bytes": 5601
      },
      {
        "_path": "include/openssl/conf_api.h",
        "path_type": "hardlink",
        "sha256": "175f86b69b58b0cd1da6c9b27d87ab4e4ed52f37dc76b7895c210c43469504eb",
        "sha256_in_prefix": "175f86b69b58b0cd1da6c9b27d87ab4e4ed52f37dc76b7895c210c43469504eb",
        "size_in_bytes": 1300
      },
      {
        "_path": "include/openssl/conferr.h",
        "path_type": "hardlink",
        "sha256": "abfe26485cd43a80e0c476e628979612ad28a635577baf68eee476850425a498",
        "sha256_in_prefix": "abfe26485cd43a80e0c476e628979612ad28a635577baf68eee476850425a498",
        "size_in_bytes": 3429
      },
      {
        "_path": "include/openssl/crypto.h",
        "path_type": "hardlink",
        "sha256": "d2cd84e695e68051fe67fa7cf901ccba4fadccc71a6b30090df20a01b91d3ec7",
        "sha256_in_prefix": "d2cd84e695e68051fe67fa7cf901ccba4fadccc71a6b30090df20a01b91d3ec7",
        "size_in_bytes": 17239
      },
      {
        "_path": "include/openssl/cryptoerr.h",
        "path_type": "hardlink",
        "sha256": "e752d7d3da32a6c009cf264450726367fd69e7c2a4c185d580ce650021d68e7a",
        "sha256_in_prefix": "e752d7d3da32a6c009cf264450726367fd69e7c2a4c185d580ce650021d68e7a",
        "size_in_bytes": 2261
      },
      {
        "_path": "include/openssl/ct.h",
        "path_type": "hardlink",
        "sha256": "b27aaf0d39609500b4fce3b3b65f6752116acb30420de1d53943074a481043f0",
        "sha256_in_prefix": "b27aaf0d39609500b4fce3b3b65f6752116acb30420de1d53943074a481043f0",
        "size_in_bytes": 15872
      },
      {
        "_path": "include/openssl/cterr.h",
        "path_type": "hardlink",
        "sha256": "ab6e70b52e341247c4b217883980ff1e98e4453d1020b0b038cdbf096c4ab8a5",
        "sha256_in_prefix": "ab6e70b52e341247c4b217883980ff1e98e4453d1020b0b038cdbf096c4ab8a5",
        "size_in_bytes": 3470
      },
      {
        "_path": "include/openssl/des.h",
        "path_type": "hardlink",
        "sha256": "3cb68fbb498e34e19e46f9d41561596ab69ccf78b1d8bdf2f312e892c060015f",
        "sha256_in_prefix": "3cb68fbb498e34e19e46f9d41561596ab69ccf78b1d8bdf2f312e892c060015f",
        "size_in_bytes": 7627
      },
      {
        "_path": "include/openssl/dh.h",
        "path_type": "hardlink",
        "sha256": "f56e0c29c124017c815c6f3d0c2413e03c81cadae2e84c2c325fc2c6719fd559",
        "sha256_in_prefix": "f56e0c29c124017c815c6f3d0c2413e03c81cadae2e84c2c325fc2c6719fd559",
        "size_in_bytes": 13403
      },
      {
        "_path": "include/openssl/dherr.h",
        "path_type": "hardlink",
        "sha256": "9b1f7019d8d95e1d5fc5268089e8331829af7416b18a8908266ab60027aae0e3",
        "sha256_in_prefix": "9b1f7019d8d95e1d5fc5268089e8331829af7416b18a8908266ab60027aae0e3",
        "size_in_bytes": 3974
      },
      {
        "_path": "include/openssl/dsa.h",
        "path_type": "hardlink",
        "sha256": "1525e5adf242643a7d36312580314f5ce61ecadf82223a49ff5c32220d78f9b9",
        "sha256_in_prefix": "1525e5adf242643a7d36312580314f5ce61ecadf82223a49ff5c32220d78f9b9",
        "size_in_bytes": 10051
      },
      {
        "_path": "include/openssl/dsaerr.h",
        "path_type": "hardlink",
        "sha256": "65ea8b47cb25ae82d611337cd47da7c1c5cdb9451982beec9d841413d4a923a9",
        "sha256_in_prefix": "65ea8b47cb25ae82d611337cd47da7c1c5cdb9451982beec9d841413d4a923a9",
        "size_in_bytes": 2972
      },
      {
        "_path": "include/openssl/dtls1.h",
        "path_type": "hardlink",
        "sha256": "7304f17cc9998bd7c16539ae9a5ea545f2e0c64086d5e688caba104b6a7ffecc",
        "sha256_in_prefix": "7304f17cc9998bd7c16539ae9a5ea545f2e0c64086d5e688caba104b6a7ffecc",
        "size_in_bytes": 1578
      },
      {
        "_path": "include/openssl/e_os2.h",
        "path_type": "hardlink",
        "sha256": "87c55abdb4755ffc04cd5e35a36d8b1ff2f19f3d8b9c7ef10357a78ff887503b",
        "sha256_in_prefix": "87c55abdb4755ffc04cd5e35a36d8b1ff2f19f3d8b9c7ef10357a78ff887503b",
        "size_in_bytes": 8920
      },
      {
        "_path": "include/openssl/ebcdic.h",
        "path_type": "hardlink",
        "sha256": "2289f14f11e75ac739d1123651d16e841f3c74e36daa483c1fed9f8c5c144720",
        "sha256_in_prefix": "2289f14f11e75ac739d1123651d16e841f3c74e36daa483c1fed9f8c5c144720",
        "size_in_bytes": 924
      },
      {
        "_path": "include/openssl/ec.h",
        "path_type": "hardlink",
        "sha256": "2a2d02e5c3b982ab2bd0d4e0a1c56e3daa3470c165aae427211a529b7dad8b06",
        "sha256_in_prefix": "2a2d02e5c3b982ab2bd0d4e0a1c56e3daa3470c165aae427211a529b7dad8b06",
        "size_in_bytes": 63657
      },
      {
        "_path": "include/openssl/ecdh.h",
        "path_type": "hardlink",
        "sha256": "95fb89add3bd32b6d43dcf1a51d1839b915e774d7138afaf618e690efbf414bb",
        "sha256_in_prefix": "95fb89add3bd32b6d43dcf1a51d1839b915e774d7138afaf618e690efbf414bb",
        "size_in_bytes": 358
      },
      {
        "_path": "include/openssl/ecdsa.h",
        "path_type": "hardlink",
        "sha256": "95fb89add3bd32b6d43dcf1a51d1839b915e774d7138afaf618e690efbf414bb",
        "sha256_in_prefix": "95fb89add3bd32b6d43dcf1a51d1839b915e774d7138afaf618e690efbf414bb",
        "size_in_bytes": 358
      },
      {
        "_path": "include/openssl/ecerr.h",
        "path_type": "hardlink",
        "sha256": "85a3b64c0644420a18295c8001a06bad5d7c3e84d4f871c925a1b45fb89ef182",
        "sha256_in_prefix": "85a3b64c0644420a18295c8001a06bad5d7c3e84d4f871c925a1b45fb89ef182",
        "size_in_bytes": 15821
      },
      {
        "_path": "include/openssl/engine.h",
        "path_type": "hardlink",
        "sha256": "0db45763a43c17d78a4a0b3fda207ac0be4781ebdde45f04fd4b07a5ced46086",
        "sha256_in_prefix": "0db45763a43c17d78a4a0b3fda207ac0be4781ebdde45f04fd4b07a5ced46086",
        "size_in_bytes": 34661
      },
      {
        "_path": "include/openssl/engineerr.h",
        "path_type": "hardlink",
        "sha256": "6f3d1e91ba1b7971929530cb8ac3ef934c0b82a8cd459caf224e241a3e5ad6e9",
        "sha256_in_prefix": "6f3d1e91ba1b7971929530cb8ac3ef934c0b82a8cd459caf224e241a3e5ad6e9",
        "size_in_bytes": 5447
      },
      {
        "_path": "include/openssl/err.h",
        "path_type": "hardlink",
        "sha256": "1447263f0a840e8135c586e16c3d858cee939deddf4fd905e391869809b4daa2",
        "sha256_in_prefix": "1447263f0a840e8135c586e16c3d858cee939deddf4fd905e391869809b4daa2",
        "size_in_bytes": 11269
      },
      {
        "_path": "include/openssl/evp.h",
        "path_type": "hardlink",
        "sha256": "9d963bdda81802988170663ccfcef437aea69042f42aef3a11ab4a217b800aef",
        "sha256_in_prefix": "9d963bdda81802988170663ccfcef437aea69042f42aef3a11ab4a217b800aef",
        "size_in_bytes": 76828
      },
      {
        "_path": "include/openssl/evperr.h",
        "path_type": "hardlink",
        "sha256": "45d68b462f25239488c020bee5fbf69700b0cd7b4dc2b3ba7015bddc499476a4",
        "sha256_in_prefix": "45d68b462f25239488c020bee5fbf69700b0cd7b4dc2b3ba7015bddc499476a4",
        "size_in_bytes": 11453
      },
      {
        "_path": "include/openssl/hmac.h",
        "path_type": "hardlink",
        "sha256": "76386c2273f105f54c5749f2fc854573c371ab185f9248ce295a748e126caae8",
        "sha256_in_prefix": "76386c2273f105f54c5749f2fc854573c371ab185f9248ce295a748e126caae8",
        "size_in_bytes": 1591
      },
      {
        "_path": "include/openssl/idea.h",
        "path_type": "hardlink",
        "sha256": "bab682c5cc06027c82d126ed8e65d7dd9dcc75fa464ccbc95d7f168bd69c732d",
        "sha256_in_prefix": "bab682c5cc06027c82d126ed8e65d7dd9dcc75fa464ccbc95d7f168bd69c732d",
        "size_in_bytes": 2099
      },
      {
        "_path": "include/openssl/kdf.h",
        "path_type": "hardlink",
        "sha256": "aaafd4a962ba9b9f2a2462076c7f7b4991d9d87e7bef71d87e9308125e0e29c0",
        "sha256_in_prefix": "aaafd4a962ba9b9f2a2462076c7f7b4991d9d87e7bef71d87e9308125e0e29c0",
        "size_in_bytes": 4326
      },
      {
        "_path": "include/openssl/kdferr.h",
        "path_type": "hardlink",
        "sha256": "e406cbc8a8a7956bcb0e06a949454b48d2702339caf4a2e621ac0cde9c2463e3",
        "sha256_in_prefix": "e406cbc8a8a7956bcb0e06a949454b48d2702339caf4a2e621ac0cde9c2463e3",
        "size_in_bytes": 2122
      },
      {
        "_path": "include/openssl/lhash.h",
        "path_type": "hardlink",
        "sha256": "1036e20aba00e0585b96b91a00ae7792dc12501160e117d1f824833de7fe3752",
        "sha256_in_prefix": "1036e20aba00e0585b96b91a00ae7792dc12501160e117d1f824833de7fe3752",
        "size_in_bytes": 9271
      },
      {
        "_path": "include/openssl/md2.h",
        "path_type": "hardlink",
        "sha256": "9e28f0a8d5e2297649af298f5e3209d32fe9486edb1793cc698a757c91270662",
        "sha256_in_prefix": "9e28f0a8d5e2297649af298f5e3209d32fe9486edb1793cc698a757c91270662",
        "size_in_bytes": 1054
      },
      {
        "_path": "include/openssl/md4.h",
        "path_type": "hardlink",
        "sha256": "03d3fc9dceec6c168d219eb9f404ca08b478d5521622834bc24b7d45945702e4",
        "sha256_in_prefix": "03d3fc9dceec6c168d219eb9f404ca08b478d5521622834bc24b7d45945702e4",
        "size_in_bytes": 1322
      },
      {
        "_path": "include/openssl/md5.h",
        "path_type": "hardlink",
        "sha256": "a0612a8f7e69e3bc166fc186ca44be1e5b1d020b5da8b5be021f73d48c270b82",
        "sha256_in_prefix": "a0612a8f7e69e3bc166fc186ca44be1e5b1d020b5da8b5be021f73d48c270b82",
        "size_in_bytes": 1320
      },
      {
        "_path": "include/openssl/mdc2.h",
        "path_type": "hardlink",
        "sha256": "f13b01ec09c45c2634673d1b9b1a79adbd6ec32bdff94287308e2bb27408e537",
        "sha256_in_prefix": "f13b01ec09c45c2634673d1b9b1a79adbd6ec32bdff94287308e2bb27408e537",
        "size_in_bytes": 1053
      },
      {
        "_path": "include/openssl/modes.h",
        "path_type": "hardlink",
        "sha256": "f4e527987e296a26fc1c06f4f896baa5f457b7e67f94957d176eed469b0fe602",
        "sha256_in_prefix": "f4e527987e296a26fc1c06f4f896baa5f457b7e67f94957d176eed469b0fe602",
        "size_in_bytes": 10478
      },
      {
        "_path": "include/openssl/obj_mac.h",
        "path_type": "hardlink",
        "sha256": "0fc1b228340e4c4a8c904a337af064de1ed83ed7ddedd1f4821d725fe62c8be7",
        "sha256_in_prefix": "0fc1b228340e4c4a8c904a337af064de1ed83ed7ddedd1f4821d725fe62c8be7",
        "size_in_bytes": 217522
      },
      {
        "_path": "include/openssl/objects.h",
        "path_type": "hardlink",
        "sha256": "4018d7c54e6f19c3230af063f4dbc8523f1450528a4af15a97a0a1ff3fb3ba38",
        "sha256_in_prefix": "4018d7c54e6f19c3230af063f4dbc8523f1450528a4af15a97a0a1ff3fb3ba38",
        "size_in_bytes": 6633
      },
      {
        "_path": "include/openssl/objectserr.h",
        "path_type": "hardlink",
        "sha256": "0ec7330c122ae2b3174df95ddecea65ff661a6152cd0192529dd1411ef3f62a1",
        "sha256_in_prefix": "0ec7330c122ae2b3174df95ddecea65ff661a6152cd0192529dd1411ef3f62a1",
        "size_in_bytes": 1316
      },
      {
        "_path": "include/openssl/ocsp.h",
        "path_type": "hardlink",
        "sha256": "cfbbc3434b56c4671080326aeb8c3d007dab7d2c3621d5146c11aba347158b80",
        "sha256_in_prefix": "cfbbc3434b56c4671080326aeb8c3d007dab7d2c3621d5146c11aba347158b80",
        "size_in_bytes": 15305
      },
      {
        "_path": "include/openssl/ocsperr.h",
        "path_type": "hardlink",
        "sha256": "c73a57b1919601ff8c04f2dc9c62dbd130ef2d3ae39bb0fcdf25bc9e6eaf327a",
        "sha256_in_prefix": "c73a57b1919601ff8c04f2dc9c62dbd130ef2d3ae39bb0fcdf25bc9e6eaf327a",
        "size_in_bytes": 3356
      },
      {
        "_path": "include/openssl/opensslconf.h",
        "path_type": "hardlink",
        "sha256": "6c5038e2253de127a601dcf5245c7d097e38ff65a3aebeead40a5f1deefddc51",
        "sha256_in_prefix": "6c5038e2253de127a601dcf5245c7d097e38ff65a3aebeead40a5f1deefddc51",
        "size_in_bytes": 4664
      },
      {
        "_path": "include/openssl/opensslv.h",
        "path_type": "hardlink",
        "sha256": "0bc426b46d9bef92180d5d4f520a046802c422af79486578c7e25afcf6dfc68d",
        "sha256_in_prefix": "0bc426b46d9bef92180d5d4f520a046802c422af79486578c7e25afcf6dfc68d",
        "size_in_bytes": 4102
      },
      {
        "_path": "include/openssl/ossl_typ.h",
        "path_type": "hardlink",
        "sha256": "46f541a1cc49bf08908ab3bde05e2683fc56ea268ca3e7f2e27628653ecb4a14",
        "sha256_in_prefix": "46f541a1cc49bf08908ab3bde05e2683fc56ea268ca3e7f2e27628653ecb4a14",
        "size_in_bytes": 6266
      },
      {
        "_path": "include/openssl/pem.h",
        "path_type": "hardlink",
        "sha256": "32d62036d0c35d03fe7f7ddaaffe3caeafcf984ec16e4db7ed19d3e202e9d7ba",
        "sha256_in_prefix": "32d62036d0c35d03fe7f7ddaaffe3caeafcf984ec16e4db7ed19d3e202e9d7ba",
        "size_in_bytes": 15468
      },
      {
        "_path": "include/openssl/pem2.h",
        "path_type": "hardlink",
        "sha256": "6833ee5712125d1ce8f7b52437a752e40c2f4793276859a8228c0de71d35c3e0",
        "sha256_in_prefix": "6833ee5712125d1ce8f7b52437a752e40c2f4793276859a8228c0de71d35c3e0",
        "size_in_bytes": 415
      },
      {
        "_path": "include/openssl/pemerr.h",
        "path_type": "hardlink",
        "sha256": "d91c6016f3c1ba70683b92fde55500ec334777defb6486c41b0a9c4e402aa295",
        "sha256_in_prefix": "d91c6016f3c1ba70683b92fde55500ec334777defb6486c41b0a9c4e402aa295",
        "size_in_bytes": 5222
      },
      {
        "_path": "include/openssl/pkcs12.h",
        "path_type": "hardlink",
        "sha256": "97c129c6c9a493d7e5d3af123d96040d87c4e54fc5e41aec450832cb32a634d6",
        "sha256_in_prefix": "97c129c6c9a493d7e5d3af123d96040d87c4e54fc5e41aec450832cb32a634d6",
        "size_in_bytes": 9871
      },
      {
        "_path": "include/openssl/pkcs12err.h",
        "path_type": "hardlink",
        "sha256": "b7340727a0480f351823b669f55cd3989c065d373c8cf6ff8745b8356f61d5ff",
        "sha256_in_prefix": "b7340727a0480f351823b669f55cd3989c065d373c8cf6ff8745b8356f61d5ff",
        "size_in_bytes": 3749
      },
      {
        "_path": "include/openssl/pkcs7.h",
        "path_type": "hardlink",
        "sha256": "cdc3505c9bb9168a6fad434dd9d9a49ad630b9ae9216bd665b11051e04a709bc",
        "sha256_in_prefix": "cdc3505c9bb9168a6fad434dd9d9a49ad630b9ae9216bd665b11051e04a709bc",
        "size_in_bytes": 11590
      },
      {
        "_path": "include/openssl/pkcs7err.h",
        "path_type": "hardlink",
        "sha256": "ecee11e9fbddab20f78a018009e6a2daf287ff5df00679298b137fe9996d9386",
        "sha256_in_prefix": "ecee11e9fbddab20f78a018009e6a2daf287ff5df00679298b137fe9996d9386",
        "size_in_bytes": 5110
      },
      {
        "_path": "include/openssl/rand.h",
        "path_type": "hardlink",
        "sha256": "5a91abcbdd14dcf2fc62761ccc58ee9407274ea558c292fa77ad625204ac2bd7",
        "sha256_in_prefix": "5a91abcbdd14dcf2fc62761ccc58ee9407274ea558c292fa77ad625204ac2bd7",
        "size_in_bytes": 2213
      },
      {
        "_path": "include/openssl/rand_drbg.h",
        "path_type": "hardlink",
        "sha256": "12379cc0a7f168cbff8e08828da72dc0e87773bc6c3bd14c4b57506339b61fa5",
        "sha256_in_prefix": "12379cc0a7f168cbff8e08828da72dc0e87773bc6c3bd14c4b57506339b61fa5",
        "size_in_bytes": 4763
      },
      {
        "_path": "include/openssl/randerr.h",
        "path_type": "hardlink",
        "sha256": "41fcebfb0767afa03f3de2732d3f0ce46cd2367ec34b2016cdb5c9e84a9a8994",
        "sha256_in_prefix": "41fcebfb0767afa03f3de2732d3f0ce46cd2367ec34b2016cdb5c9e84a9a8994",
        "size_in_bytes": 4633
      },
      {
        "_path": "include/openssl/rc2.h",
        "path_type": "hardlink",
        "sha256": "ec2b9196898bbc45ff2ab00204f93a6f20c974225510f29097ad69a6eeebcdfe",
        "sha256_in_prefix": "ec2b9196898bbc45ff2ab00204f93a6f20c974225510f29097ad69a6eeebcdfe",
        "size_in_bytes": 1534
      },
      {
        "_path": "include/openssl/rc4.h",
        "path_type": "hardlink",
        "sha256": "6fc023442f524349685d13d50854ad773b12b8c7a153d72d615ab27dd4a3d609",
        "sha256_in_prefix": "6fc023442f524349685d13d50854ad773b12b8c7a153d72d615ab27dd4a3d609",
        "size_in_bytes": 825
      },
      {
        "_path": "include/openssl/rc5.h",
        "path_type": "hardlink",
        "sha256": "c238954a1df23f52362d6e5fa78df2c7a5a2ad6ef9536e489f0a23295efa0cab",
        "sha256_in_prefix": "c238954a1df23f52362d6e5fa78df2c7a5a2ad6ef9536e489f0a23295efa0cab",
        "size_in_bytes": 1988
      },
      {
        "_path": "include/openssl/ripemd.h",
        "path_type": "hardlink",
        "sha256": "8c74b93c10a9e83abc17ced3a8021af7506f39a0fadab07b5db2d4faebcf68b6",
        "sha256_in_prefix": "8c74b93c10a9e83abc17ced3a8021af7506f39a0fadab07b5db2d4faebcf68b6",
        "size_in_bytes": 1243
      },
      {
        "_path": "include/openssl/rsa.h",
        "path_type": "hardlink",
        "sha256": "509c4db9081195cf6c9e5fd4683890aeb39509f2997a1989dd5a57cf43039bc2",
        "sha256_in_prefix": "509c4db9081195cf6c9e5fd4683890aeb39509f2997a1989dd5a57cf43039bc2",
        "size_in_bytes": 22202
      },
      {
        "_path": "include/openssl/rsaerr.h",
        "path_type": "hardlink",
        "sha256": "e032a933b1a4c13ec901d7561ad23ace01881b60cdcc86af0e4cb0a25a2a3252",
        "sha256_in_prefix": "e032a933b1a4c13ec901d7561ad23ace01881b60cdcc86af0e4cb0a25a2a3252",
        "size_in_bytes": 9075
      },
      {
        "_path": "include/openssl/safestack.h",
        "path_type": "hardlink",
        "sha256": "57665dabb37f4f0bd853539d93c64cb8adf37fd9552dc9fad215cc8f47a991c4",
        "sha256_in_prefix": "57665dabb37f4f0bd853539d93c64cb8adf37fd9552dc9fad215cc8f47a991c4",
        "size_in_bytes": 8139
      },
      {
        "_path": "include/openssl/seed.h",
        "path_type": "hardlink",
        "sha256": "6bf2373dfb10dc5cbc626cf2fe86b9b1c82373d799bdd6be13eedaf7d4540d55",
        "sha256_in_prefix": "6bf2373dfb10dc5cbc626cf2fe86b9b1c82373d799bdd6be13eedaf7d4540d55",
        "size_in_bytes": 3479
      },
      {
        "_path": "include/openssl/sha.h",
        "path_type": "hardlink",
        "sha256": "0bb6745481ac56b67f450d09033e813bf8f6a5f2025e90d5eb539eab1ad5e323",
        "sha256_in_prefix": "0bb6745481ac56b67f450d09033e813bf8f6a5f2025e90d5eb539eab1ad5e323",
        "size_in_bytes": 3831
      },
      {
        "_path": "include/openssl/srp.h",
        "path_type": "hardlink",
        "sha256": "82a08bf9a866dec1b7deb66b4077690cee0f6caf91eb00136c5eed4e8d943d06",
        "sha256_in_prefix": "82a08bf9a866dec1b7deb66b4077690cee0f6caf91eb00136c5eed4e8d943d06",
        "size_in_bytes": 3827
      },
      {
        "_path": "include/openssl/srtp.h",
        "path_type": "hardlink",
        "sha256": "e50e2dd5df6a0db219091cd1c6768a6d319ef6485b16e1f361fce43067847626",
        "sha256_in_prefix": "e50e2dd5df6a0db219091cd1c6768a6d319ef6485b16e1f361fce43067847626",
        "size_in_bytes": 1316
      },
      {
        "_path": "include/openssl/ssl.h",
        "path_type": "hardlink",
        "sha256": "c60006f61d48ec19032b672194b5ee7f535f9a537125980dae2006b7d21cca1b",
        "sha256_in_prefix": "c60006f61d48ec19032b672194b5ee7f535f9a537125980dae2006b7d21cca1b",
        "size_in_bytes": 111252
      },
      {
        "_path": "include/openssl/ssl2.h",
        "path_type": "hardlink",
        "sha256": "7fb557a32488ad44a25420abff8279abd0bd1f4ab768e73d3e1d5c2dab36c0c5",
        "sha256_in_prefix": "7fb557a32488ad44a25420abff8279abd0bd1f4ab768e73d3e1d5c2dab36c0c5",
        "size_in_bytes": 542
      },
      {
        "_path": "include/openssl/ssl3.h",
        "path_type": "hardlink",
        "sha256": "d04cfec2a9f9da2aa299f55884215e200b490a6e0a9423255262648bd8a6d1c0",
        "sha256_in_prefix": "d04cfec2a9f9da2aa299f55884215e200b490a6e0a9423255262648bd8a6d1c0",
        "size_in_bytes": 14705
      },
      {
        "_path": "include/openssl/sslerr.h",
        "path_type": "hardlink",
        "sha256": "54a3c784ebfab631d21bb9b7db3ce38167acc0299e8920b5ce6e419a3736930a",
        "sha256_in_prefix": "54a3c784ebfab631d21bb9b7db3ce38167acc0299e8920b5ce6e419a3736930a",
        "size_in_bytes": 46862
      },
      {
        "_path": "include/openssl/stack.h",
        "path_type": "hardlink",
        "sha256": "45ba803bbe14007e494bb24b2ca954f6362ef700a10480efa3d2f3acb159deec",
        "sha256_in_prefix": "45ba803bbe14007e494bb24b2ca954f6362ef700a10480efa3d2f3acb159deec",
        "size_in_bytes": 3095
      },
      {
        "_path": "include/openssl/store.h",
        "path_type": "hardlink",
        "sha256": "1105bad1a309d3122a2cfbdc4098a33e33d50c8118e70bb332f3b7d6ef2bbb58",
        "sha256_in_prefix": "1105bad1a309d3122a2cfbdc4098a33e33d50c8118e70bb332f3b7d6ef2bbb58",
        "size_in_bytes": 11199
      },
      {
        "_path": "include/openssl/storeerr.h",
        "path_type": "hardlink",
        "sha256": "071c66bcc03ed5c2a24f1964f45e8d1a633f3cb4b183c718ded3e25312f8c4e0",
        "sha256_in_prefix": "071c66bcc03ed5c2a24f1964f45e8d1a633f3cb4b183c718ded3e25312f8c4e0",
        "size_in_bytes": 4399
      },
      {
        "_path": "include/openssl/symhacks.h",
        "path_type": "hardlink",
        "sha256": "0c9e026a5932a2432e3cdf7defb789610c4272010e51e5ff0471809eabb7aa2d",
        "sha256_in_prefix": "0c9e026a5932a2432e3cdf7defb789610c4272010e51e5ff0471809eabb7aa2d",
        "size_in_bytes": 1311
      },
      {
        "_path": "include/openssl/tls1.h",
        "path_type": "hardlink",
        "sha256": "d4104ca8720332b9852f4725d4660a6cf77a52b587e7d96ec263e996c1d0ae2f",
        "sha256_in_prefix": "d4104ca8720332b9852f4725d4660a6cf77a52b587e7d96ec263e996c1d0ae2f",
        "size_in_bytes": 72490
      },
      {
        "_path": "include/openssl/ts.h",
        "path_type": "hardlink",
        "sha256": "9bd039ebce7bf6b6e71fc9667e44e017fc0cb7c79c023be1c965894e61b79238",
        "sha256_in_prefix": "9bd039ebce7bf6b6e71fc9667e44e017fc0cb7c79c023be1c965894e61b79238",
        "size_in_bytes": 22429
      },
      {
        "_path": "include/openssl/tserr.h",
        "path_type": "hardlink",
        "sha256": "b6e1bbc8c53e4f7c054768dec55272d001dfbfee788a85ba8b0c069e08cbbe85",
        "sha256_in_prefix": "b6e1bbc8c53e4f7c054768dec55272d001dfbfee788a85ba8b0c069e08cbbe85",
        "size_in_bytes": 6746
      },
      {
        "_path": "include/openssl/txt_db.h",
        "path_type": "hardlink",
        "sha256": "903696bd5b9908530f8a8578fef47721f47f3fe8507bac7761473e925e942159",
        "sha256_in_prefix": "903696bd5b9908530f8a8578fef47721f47f3fe8507bac7761473e925e942159",
        "size_in_bytes": 1666
      },
      {
        "_path": "include/openssl/ui.h",
        "path_type": "hardlink",
        "sha256": "f5ea3f5d2e7beb3e81db8c23c6e618e38e511c213fd93a11ef51b9ae4ad03619",
        "sha256_in_prefix": "f5ea3f5d2e7beb3e81db8c23c6e618e38e511c213fd93a11ef51b9ae4ad03619",
        "size_in_bytes": 16052
      },
      {
        "_path": "include/openssl/uierr.h",
        "path_type": "hardlink",
        "sha256": "bb39377c702d9765547ce95f9e758b46a54ee4e2689f892033cf2a4ea57d5d0b",
        "sha256_in_prefix": "bb39377c702d9765547ce95f9e758b46a54ee4e2689f892033cf2a4ea57d5d0b",
        "size_in_bytes": 2737
      },
      {
        "_path": "include/openssl/whrlpool.h",
        "path_type": "hardlink",
        "sha256": "38750722d1737083fa8caedfccd3bce574080e35692010d2f91dd303b154af69",
        "sha256_in_prefix": "38750722d1737083fa8caedfccd3bce574080e35692010d2f91dd303b154af69",
        "size_in_bytes": 1377
      },
      {
        "_path": "include/openssl/x509.h",
        "path_type": "hardlink",
        "sha256": "f1b8b356d649da24236d5aabdfafe047b516b2008d8d5d09da5e99fbc4b4a98c",
        "sha256_in_prefix": "f1b8b356d649da24236d5aabdfafe047b516b2008d8d5d09da5e99fbc4b4a98c",
        "size_in_bytes": 43326
      },
      {
        "_path": "include/openssl/x509_vfy.h",
        "path_type": "hardlink",
        "sha256": "f621ac4c38a89bd010656ca00937773126a7ef348b29a14b04cc5ec5c095b531",
        "sha256_in_prefix": "f621ac4c38a89bd010656ca00937773126a7ef348b29a14b04cc5ec5c095b531",
        "size_in_bytes": 32451
      },
      {
        "_path": "include/openssl/x509err.h",
        "path_type": "hardlink",
        "sha256": "622499b9aaa546957c802da9aee36794c24c9c7d2e105ae69b47841ecdac6b7a",
        "sha256_in_prefix": "622499b9aaa546957c802da9aee36794c24c9c7d2e105ae69b47841ecdac6b7a",
        "size_in_bytes": 6803
      },
      {
        "_path": "include/openssl/x509v3.h",
        "path_type": "hardlink",
        "sha256": "18648fb56b57553ab0c42597609a8f8963516d73f9b787db188020d5ca87f3ba",
        "sha256_in_prefix": "18648fb56b57553ab0c42597609a8f8963516d73f9b787db188020d5ca87f3ba",
        "size_in_bytes": 33439
      },
      {
        "_path": "include/openssl/x509v3err.h",
        "path_type": "hardlink",
        "sha256": "3d17dcca277cd6f6373a30a6e07e1a2c44024a0b980ccccc2533d78bf0c22776",
        "sha256_in_prefix": "3d17dcca277cd6f6373a30a6e07e1a2c44024a0b980ccccc2533d78bf0c22776",
        "size_in_bytes": 8901
      },
      {
        "_path": "lib/engines-1.1/afalg.so",
        "path_type": "hardlink",
        "sha256": "b0b6ae57304e1349aacd799b87c6be7af98ab34310ae97ea222055f13e670739",
        "sha256_in_prefix": "b0b6ae57304e1349aacd799b87c6be7af98ab34310ae97ea222055f13e670739",
        "size_in_bytes": 15744
      },
      {
        "_path": "lib/engines-1.1/capi.so",
        "path_type": "hardlink",
        "sha256": "8f588eb91a94ae806670041782e39cb6164e24d67e5b32530b100ccdb29641c1",
        "sha256_in_prefix": "8f588eb91a94ae806670041782e39cb6164e24d67e5b32530b100ccdb29641c1",
        "size_in_bytes": 15768
      },
      {
        "_path": "lib/engines-1.1/padlock.so",
        "path_type": "hardlink",
        "sha256": "29fd0bbd839a4396d613719466fbf05d5ad510c816ecdf9752c5ed92552b1cc7",
        "sha256_in_prefix": "29fd0bbd839a4396d613719466fbf05d5ad510c816ecdf9752c5ed92552b1cc7",
        "size_in_bytes": 32472
      },
      {
        "_path": "lib/libcrypto.a",
        "file_mode": "binary",
        "path_type": "hardlink",
        "prefix_placeholder": "/tmp/build/80754af9/openssl_1630591740906/_h_env_placehold_placehold_placehold_placehold_placehold_placehold_placehold_placehold_placehold_placehold_placehold_placehold_placehold_placehold_placehold_placehold_placehold_placehold_placehold_placehold_placeh",
        "sha256": "aa9f07b2ae51d257b2def3811b2f62b8c3cdb352b92572aa0b2c75c2ffe2edfe",
        "sha256_in_prefix": "8fb0cf75e229f963566cfb3738852b40dfb3cacdc2a9db3f1d4deef09088fc07",
        "size_in_bytes": 6526338
      },
      {
        "_path": "lib/libcrypto.so",
        "path_type": "softlink",
        "sha256": "6e73bda874e52e07910f0268ba764c31bd6020b450e65b72a29bb2f1e54d25b5",
        "size_in_bytes": 3270440
      },
      {
        "_path": "lib/libcrypto.so.1.1",
        "file_mode": "binary",
        "no_link": true,
        "path_type": "hardlink",
        "prefix_placeholder": "/tmp/build/80754af9/openssl_1630591740906/_h_env_placehold_placehold_placehold_placehold_placehold_placehold_placehold_placehold_placehold_placehold_placehold_placehold_placehold_placehold_placehold_placehold_placehold_placehold_placehold_placehold_placeh",
        "sha256": "6e73bda874e52e07910f0268ba764c31bd6020b450e65b72a29bb2f1e54d25b5",
        "sha256_in_prefix": "8d4b6e89b2e036ea4818c8f5fabf63378a98914c05c37d663d10851aad1932b4",
        "size_in_bytes": 3270440
      },
      {
        "_path": "lib/libssl.a",
        "path_type": "hardlink",
        "sha256": "899e22d41baf343377e169d012e25d310563e0a3e8e79a52f04ca929204a61bd",
        "sha256_in_prefix": "899e22d41baf343377e169d012e25d310563e0a3e8e79a52f04ca929204a61bd",
        "size_in_bytes": 1221454
      },
      {
        "_path": "lib/libssl.so",
        "path_type": "softlink",
        "sha256": "e5cfdbdcf19a545e814e29051c3422de2c8c30d3d94794c0fc22cba0c05f3e7c",
        "size_in_bytes": 678056
      },
      {
        "_path": "lib/libssl.so.1.1",
        "path_type": "hardlink",
        "sha256": "e5cfdbdcf19a545e814e29051c3422de2c8c30d3d94794c0fc22cba0c05f3e7c",
        "sha256_in_prefix": "e5cfdbdcf19a545e814e29051c3422de2c8c30d3d94794c0fc22cba0c05f3e7c",
        "size_in_bytes": 678056
      },
      {
        "_path": "lib/pkgconfig/libcrypto.pc",
        "file_mode": "text",
        "path_type": "hardlink",
        "prefix_placeholder": "/tmp/build/80754af9/openssl_1630591740906/_h_env_placehold_placehold_placehold_placehold_placehold_placehold_placehold_placehold_placehold_placehold_placehold_placehold_placehold_placehold_placehold_placehold_placehold_placehold_placehold_placehold_placeh",
        "sha256": "9f775e27b3e3284fc29d883bb1762c5eed5d40c426e25cb6094aada02599dcc4",
        "sha256_in_prefix": "a696693f3bc40e8a4c8699d52d2a9da2546b44a56b9c54ef14fe5d4111d18daf",
        "size_in_bytes": 536
      },
      {
        "_path": "lib/pkgconfig/libssl.pc",
        "file_mode": "text",
        "path_type": "hardlink",
        "prefix_placeholder": "/tmp/build/80754af9/openssl_1630591740906/_h_env_placehold_placehold_placehold_placehold_placehold_placehold_placehold_placehold_placehold_placehold_placehold_placehold_placehold_placehold_placehold_placehold_placehold_placehold_placehold_placehold_placeh",
        "sha256": "b0634b0033bf867c70a61462813031e7d169ab257990749ad3512461b4ff44ce",
        "sha256_in_prefix": "2002590fb4dd95f5e955f43b54023b96a2690916f565014733af67c76757e422",
        "size_in_bytes": 515
      },
      {
        "_path": "lib/pkgconfig/openssl.pc",
        "file_mode": "text",
        "path_type": "hardlink",
        "prefix_placeholder": "/tmp/build/80754af9/openssl_1630591740906/_h_env_placehold_placehold_placehold_placehold_placehold_placehold_placehold_placehold_placehold_placehold_placehold_placehold_placehold_placehold_placehold_placehold_placehold_placehold_placehold_placehold_placeh",
        "sha256": "1d9209e5cb15cfd1197f41d46c9d2a08055f9c6929ae5bf10b328f0617457a18",
        "sha256_in_prefix": "d68b759bb33610b2e78eb487c5573d8651ca73c366c0b8f1c59f29ca3f0c3c93",
        "size_in_bytes": 469
      },
      {
        "_path": "ssl/ct_log_list.cnf",
        "path_type": "hardlink",
        "sha256": "f1c1803d13d1d0b755b13b23c28bd4e20e07baf9f2b744c9337ba5866aa0ec3b",
        "sha256_in_prefix": "f1c1803d13d1d0b755b13b23c28bd4e20e07baf9f2b744c9337ba5866aa0ec3b",
        "size_in_bytes": 412
      },
      {
        "_path": "ssl/ct_log_list.cnf.dist",
        "path_type": "hardlink",
        "sha256": "f1c1803d13d1d0b755b13b23c28bd4e20e07baf9f2b744c9337ba5866aa0ec3b",
        "sha256_in_prefix": "f1c1803d13d1d0b755b13b23c28bd4e20e07baf9f2b744c9337ba5866aa0ec3b",
        "size_in_bytes": 412
      },
      {
        "_path": "ssl/misc/CA.pl",
        "path_type": "hardlink",
        "sha256": "2f5a51d7e27995d379dc27d2653bbc88a7e78392c56a5fba868e739e4b67c14f",
        "sha256_in_prefix": "2f5a51d7e27995d379dc27d2653bbc88a7e78392c56a5fba868e739e4b67c14f",
        "size_in_bytes": 7845
      },
      {
        "_path": "ssl/misc/tsget",
        "path_type": "softlink",
        "sha256": "c2dd0643c1dadeb4fe912fef7410f877f3190cf477cd2b934493e75d4bba012a",
        "size_in_bytes": 6826
      },
      {
        "_path": "ssl/misc/tsget.pl",
        "path_type": "hardlink",
        "sha256": "c2dd0643c1dadeb4fe912fef7410f877f3190cf477cd2b934493e75d4bba012a",
        "sha256_in_prefix": "c2dd0643c1dadeb4fe912fef7410f877f3190cf477cd2b934493e75d4bba012a",
        "size_in_bytes": 6826
      },
      {
        "_path": "ssl/openssl.cnf",
        "path_type": "hardlink",
        "sha256": "f10ba64917b4458fafc1e078c2eb9e6a7602e68fc98c2e9e6df5e1636ae27d6b",
        "sha256_in_prefix": "f10ba64917b4458fafc1e078c2eb9e6a7602e68fc98c2e9e6df5e1636ae27d6b",
        "size_in_bytes": 10909
      },
      {
        "_path": "ssl/openssl.cnf.dist",
        "path_type": "hardlink",
        "sha256": "f10ba64917b4458fafc1e078c2eb9e6a7602e68fc98c2e9e6df5e1636ae27d6b",
        "sha256_in_prefix": "f10ba64917b4458fafc1e078c2eb9e6a7602e68fc98c2e9e6df5e1636ae27d6b",
        "size_in_bytes": 10909
      }
    ],
    "paths_version": 1
  },
  "requested_spec": "None",
  "sha256": "87da3a25d5534f656873ade1ae86d18a64de35d55cf4776eae6b8b461d2e59c6",
  "size": 2636799,
  "subdir": "linux-64",
  "timestamp": 1630591938970,
  "track_features": "",
  "url": "https://repo.anaconda.com/pkgs/main/linux-64/openssl-1.1.1l-h7f8727e_0.conda",
  "version": "1.1.1l"
}