{
  "build": "h62c20be_0",
  "build_number": 0,
  "channel": "https://repo.anaconda.com/pkgs/main/linux-64",
  "constrains": [],
  "depends": [
    "libedit >=3.1.20191231,<3.2.0a0",
    "libgcc-ng >=7.3.0",
    "ncurses >=6.2,<7.0a0",
    "zlib >=1.2.11,<1.3.0a0"
  ],
  "extracted_package_dir": "/home/student2/PycharmProjects/masterproject/relook/instance_occlsegm/.anaconda3/pkgs/sqlite-3.33.0-h62c20be_0",
  "features": "",
  "files": [
    "bin/sqlite3",
    "include/sqlite3.h",
    "include/sqlite3ext.h",
    "lib/libsqlite3.a",
    "lib/libsqlite3.so",
    "lib/libsqlite3.so.0",
    "lib/libsqlite3.so.0.8.6",
    "lib/pkgconfig/sqlite3.pc",
    "share/man/man1/sqlite3.1"
  ],
  "fn": "sqlite-3.33.0-h62c20be_0.conda",
  "legacy_bz2_md5": "803edb3abbf1241e491cf6c844c5a009",
  "legacy_bz2_size": 2124319,
  "license": "Public-Domain (http://www.sqlite.org/copyright.html)",
  "link": {
    "source": "/home/student2/PycharmProjects/masterproject/relook/instance_occlsegm/.anaconda3/pkgs/sqlite-3.33.0-h62c20be_0",
    "type": 1
  },
  "md5": "c4d7dd5cb9eca27fdf96764c1f706cb5",
  "name": "sqlite",
  "package_tarball_full_path": "/home/student2/PycharmProjects/masterproject/relook/instance_occlsegm/.anaconda3/pkgs/sqlite-3.33.0-h62c20be_0.conda",
  "paths_data": {
    "paths": [
      {
        "_path": "lib/pkgconfig/sqlite3.pc",
        "file_mode": "text",
        "path_type": "hardlink",
        "prefix_placeholder": "/opt/anaconda1anaconda2anaconda3",
        "sha256": "8341eedb4d10e2a007d44621de983e70946a0e64ddba33ffd31d8638048a5fb8",
        "sha256_in_prefix": "e4e902ad942db8a4fab09d18dab09a76617e1f9617da0b927714c8fe90301f73",
        "size_in_bytes": 308
      }
    ],
    "paths_version": 1
  },
  "requested_spec": "sqlite==3.33.0=h62c20be_0",
  "sha256": "c2ae0bd233ddc773d003e9eabd89d9becba941e62c307a6e9870d1b6c53f2129",
  "size": 1169786,
  "subdir": "linux-64",
  "timestamp": 1597935754268,
  "track_features": "",
  "url": "https://repo.anaconda.com/pkgs/main/linux-64/sqlite-3.33.0-h62c20be_0.conda",
  "version": "3.33.0"
}