{
  "paths": [
    {
      "_path": "site-packages/tqdm-4.55.1.dist-info/INSTALLER",
      "path_type": "hardlink",
      "sha256": "d0edee15f91b406f3f99726e44eb990be6e34fd0345b52b910c568e0eef6a2a8",
      "size_in_bytes": 5
    },
    {
      "_path": "site-packages/tqdm-4.55.1.dist-info/LICENCE",
      "path_type": "hardlink",
      "sha256": "8f6a61cca6204271b520f4544eab8b0f98bac00524b4515fc69584e988c1e26a",
      "size_in_bytes": 2003
    },
    {
      "_path": "site-packages/tqdm-4.55.1.dist-info/METADATA",
      "path_type": "hardlink",
      "sha256": "94fce7f517b79718d34088d625cd0da5195648c9fd25db6193b9da01f92a15ab",
      "size_in_bytes": 55788
    },
    {
      "_path": "site-packages/tqdm-4.55.1.dist-info/RECORD",
      "path_type": "hardlink",
      "sha256": "5d8acda92818a6538f0a5f1f811d6723fb21e836505104cf0e72893205ebf8aa",
      "size_in_bytes": 4214
    },
    {
      "_path": "site-packages/tqdm-4.55.1.dist-info/REQUESTED",
      "path_type": "hardlink",
      "sha256": "e3b0c44298fc1c149afbf4c8996fb92427ae41e4649b934ca495991b7852b855",
      "size_in_bytes": 0
    },
    {
      "_path": "site-packages/tqdm-4.55.1.dist-info/WHEEL",
      "path_type": "hardlink",
      "sha256": "67e9f2629c2b712ab17ddbb1e4c6e7fc3439db988fec9d831b72601af398c934",
      "size_in_bytes": 110
    },
    {
      "_path": "site-packages/tqdm-4.55.1.dist-info/direct_url.json",
      "path_type": "hardlink",
      "sha256": "562590da038869420abe1784c690466981ce63fa591218bf06241df4270ef3fa",
      "size_in_bytes": 77
    },
    {
      "_path": "site-packages/tqdm-4.55.1.dist-info/entry_points.txt",
      "path_type": "hardlink",
      "sha256": "c0301a7bac2dd963605dbfd99394cdbbd626aa869f506da957b2b50977f793f5",
      "size_in_bytes": 40
    },
    {
      "_path": "site-packages/tqdm-4.55.1.dist-info/top_level.txt",
      "path_type": "hardlink",
      "sha256": "34b89424d7e673d02dd79b3b254462c2fa8c123522f46e4f30646b98c6333523",
      "size_in_bytes": 5
    },
    {
      "_path": "site-packages/tqdm/__init__.py",
      "path_type": "hardlink",
      "sha256": "fccbde8dc85f44061a91f0b65e4623124f48f8565b59d86a919430acd069b070",
      "size_in_bytes": 1653
    },
    {
      "_path": "site-packages/tqdm/__main__.py",
      "path_type": "hardlink",
      "sha256": "cf7390a2508a0fcad4777a4a629fc5212ab655cb45845975995f835676a834e3",
      "size_in_bytes": 29
    },
    {
      "_path": "site-packages/tqdm/_dist_ver.py",
      "path_type": "hardlink",
      "sha256": "ebcafa7acaab07a96f81372aa344dacb9dde241883c9eda39b48fc6ea5e6ead3",
      "size_in_bytes": 23
    },
    {
      "_path": "site-packages/tqdm/_main.py",
      "path_type": "hardlink",
      "sha256": "86f5bb6170b91205b93acb65379f046f4bdfa61cd7bc1e86152cfe6fcf7a5abd",
      "size_in_bytes": 281
    },
    {
      "_path": "site-packages/tqdm/_monitor.py",
      "path_type": "hardlink",
      "sha256": "471f27a6bb52bd38144d455246c0613718d8233fb1f6b7e320fefc93dbdb9ab4",
      "size_in_bytes": 3686
    },
    {
      "_path": "site-packages/tqdm/_tqdm.py",
      "path_type": "hardlink",
      "sha256": "82d4f0620c9f0021d64751004af1f76757021a8bd659486b618c63100f0469f1",
      "size_in_bytes": 281
    },
    {
      "_path": "site-packages/tqdm/_tqdm_gui.py",
      "path_type": "hardlink",
      "sha256": "08c82141621535ae4893c3d3a29ec4cc7d4a022524a029c5ebda2c0b066923c4",
      "size_in_bytes": 285
    },
    {
      "_path": "site-packages/tqdm/_tqdm_notebook.py",
      "path_type": "hardlink",
      "sha256": "1f4f117c939073cbc858fa6d35e1e0865e805c8721424e8edc6bc7ccb885f6eb",
      "size_in_bytes": 305
    },
    {
      "_path": "site-packages/tqdm/_tqdm_pandas.py",
      "path_type": "hardlink",
      "sha256": "73d8e9b5482280de9ac510e145de1189ff7c4e6c5ea297359c5345848a5b1541",
      "size_in_bytes": 888
    },
    {
      "_path": "site-packages/tqdm/_utils.py",
      "path_type": "hardlink",
      "sha256": "31409a22865919b2425b3d2b302b8ea852fe8bee84be657722086faff8bcdd20",
      "size_in_bytes": 544
    },
    {
      "_path": "site-packages/tqdm/asyncio.py",
      "path_type": "hardlink",
      "sha256": "34a3ebb26035bdf522c184fa8cf78ef9a484de4b4dd60deda486dc5af35c6fda",
      "size_in_bytes": 2151
    },
    {
      "_path": "site-packages/tqdm/auto.py",
      "path_type": "hardlink",
      "sha256": "fce83fc4367fd580b2be8cf75a1242a53bca61cd6897827d248daf2e11ce91a5",
      "size_in_bytes": 1068
    },
    {
      "_path": "site-packages/tqdm/autonotebook.py",
      "path_type": "hardlink",
      "sha256": "2de4c1878896531f58c991a8dd02b54501ca80e825ea9f8dca1c8312fa4510be",
      "size_in_bytes": 846
    },
    {
      "_path": "site-packages/tqdm/cli.py",
      "path_type": "hardlink",
      "sha256": "e13133177e77a7f619df5cf0e2481ab172432031f48ebd961921e8ac5dfc7bd5",
      "size_in_bytes": 10449
    },
    {
      "_path": "site-packages/tqdm/completion.sh",
      "path_type": "hardlink",
      "sha256": "eea844b0ae04b29e2948c2858ad9ff18aa19bdd5383eefb190e944f230845bc9",
      "size_in_bytes": 930
    },
    {
      "_path": "site-packages/tqdm/contrib/__init__.py",
      "path_type": "hardlink",
      "sha256": "31f5688c071af62061eaeac35edf698a0252b96d801a55bd2dfff09592bbbdfd",
      "size_in_bytes": 2048
    },
    {
      "_path": "site-packages/tqdm/contrib/bells.py",
      "path_type": "hardlink",
      "sha256": "e6b8ab8ada240f7927a106ee98e6d078a8d540463f436509153d12cfd1f130b8",
      "size_in_bytes": 762
    },
    {
      "_path": "site-packages/tqdm/contrib/concurrent.py",
      "path_type": "hardlink",
      "sha256": "e308e9e170366c8b0d55c12fbc4340cd2df6e110ba2a7baa1516f5ba95eff010",
      "size_in_bytes": 4635
    },
    {
      "_path": "site-packages/tqdm/contrib/discord.py",
      "path_type": "hardlink",
      "sha256": "4599dfd88b5fd6b0eb0fa2413825a60015e13ca223b4de64c40560ece719fe86",
      "size_in_bytes": 3927
    },
    {
      "_path": "site-packages/tqdm/contrib/itertools.py",
      "path_type": "hardlink",
      "sha256": "a3047083056dc35efa6feaeeed20acffbbede29286f3454f221a096c3f67bae1",
      "size_in_bytes": 798
    },
    {
      "_path": "site-packages/tqdm/contrib/telegram.py",
      "path_type": "hardlink",
      "sha256": "1abcabd0532f8c2530bed084e709f19b98b3733194bc7f0173ba8d28e705276f",
      "size_in_bytes": 4077
    },
    {
      "_path": "site-packages/tqdm/contrib/utils_worker.py",
      "path_type": "hardlink",
      "sha256": "3696404af60a8c680aafc73381e5f941dcea3b632bf77c8ff9a93a862b9ea122",
      "size_in_bytes": 1249
    },
    {
      "_path": "site-packages/tqdm/gui.py",
      "path_type": "hardlink",
      "sha256": "943377e4e73e258c595cb17ca9fb0a966acc2c2311baae9c8b9279cec9e22346",
      "size_in_bytes": 5885
    },
    {
      "_path": "site-packages/tqdm/keras.py",
      "path_type": "hardlink",
      "sha256": "ceed9873ceb2508540f438071de315697d75ba9233fa79d81fca12c88e9df3d2",
      "size_in_bytes": 4208
    },
    {
      "_path": "site-packages/tqdm/notebook.py",
      "path_type": "hardlink",
      "sha256": "7683055de7c562bcce4db142b327224f420f90bbd0c9bc9a6fcf50ea6ecb38f2",
      "size_in_bytes": 11424
    },
    {
      "_path": "site-packages/tqdm/std.py",
      "path_type": "hardlink",
      "sha256": "09024fdca364d5e811c84dc85c0a658237c44767f8b8f2d77d46742de99b453e",
      "size_in_bytes": 56455
    },
    {
      "_path": "site-packages/tqdm/tqdm.1",
      "path_type": "hardlink",
      "sha256": "e851dab2c52386adef8d4365816e39ce3759972c03feceded1b416fb0ed098cd",
      "size_in_bytes": 7881
    },
    {
      "_path": "site-packages/tqdm/utils.py",
      "path_type": "hardlink",
      "sha256": "c646ef59d73fa3d43ee2231a491fdf3028d019a37a1654f1483d73413bd24d0c",
      "size_in_bytes": 9450
    },
    {
      "_path": "site-packages/tqdm/version.py",
      "path_type": "hardlink",
      "sha256": "fb5c968dfbb73f47a0855b32b071f4edf6f376200335177346d60fa8e6aa4760",
      "size_in_bytes": 333
    }
  ],
  "paths_version": 1
}